version="v0.1"
tags={
	"Alternative History"
	"National Focuses"
}
name="Bitt3rSteelian Belguim"
supported_version="1.10.3"
path="C:/Users/HoI 4 Local Mods/Documents/Paradox Interactive/Hearts of Iron IV/mod/bsbel/bitters-belguim"