state={
	id=810
	name="STATE_810"
	history={
		owner = FRA
		add_core_of = FRA
		victory_points = {
			575 5 
		}
		victory_points = {
			11483 10 
		}
		buildings = {
			infrastructure = 8
			industrial_complex = 1
			575 = {
				naval_base = 6

			}
		}
			1939.1.1 = {
				buildings = {
					industrial_complex = 3
				}

		}
	}
	provinces={
		575 11483 
	}
	manpower=637000
	buildings_max_level_factor=1.000
	state_category = city
}
